1 10 20
100 200 125
201 210 89
900 1000 174
1 1 1
219934 691676 509
452118 852951 525
610362 720517 509
310951 495445 449
936566 197492 525
462168 66890 449
726319 334764 509
330017 562358 470
455003 908679 525
51698 709812 509
987574 422334 525
419768 66345 449
191273 88957 383
324384 310885 384
205049 534826 470
152649 576138 470
8078 257100 443
182257 619625 470
655300 873508 525
124845 756329 509
844677 482322 525
269947 219791 443
175834 636106 509
116706 956091 525
703422 550970 509
704533 744608 504
440892 695639 509
150385 548411 470
625910 456427 470
808443 78805 509
138247 9389 354
851158 997864 507
326914 642038 509
385133 79280 443
384021 105349 443
509106 926533 525
418009 241051 449
285651 157705 443
760007 302716 509
410185 371414 449
753061 880712 525
748941 510944 509
690194 813053 504
268680 81011 443
176750 618852 470
97914 596601 470
310663 156695 443
665562 678522 398
948347 249024 525
531250 710218 509
483291 310596 449
789399 754510 468
263828 376251 441
753005 547712 509
793196 167144 509
990112 714117 525
386394 672582 509
847222 927783 476
275221 245696 407
284484 494155 449
462776 91410 449
871866 655780 525
836744 29846 509
639124 189886 509
562717 779305 509
41149 415855 449
153546 814477 509
347854 268627 441
739985 253436 509
104468 423614 449
790831 655607 504
781486 453165 509
323843 230238 443
272636 137102 443
338894 989025 525
490217 232915 449
987580 688255 525
693265 714924 504
724217 951109 525
401491 737083 509
806397 656561 504
433950 150730 449
233319 309031 407
687900 341705 509
865030 557834 525
533394 15916 470
764661 446806 509
118593 87890 354
188898 882568 525
716640 920103 525
401756 305108 441
33584 518810 470
492366 427375 444
364558 75401 443
774209 235976 509
26042 722506 509
725998 506343 509
841084 774047 525
274587 572830 470
950477 316934 525
656327 621573 509
324899 505071 449
1244 603492 470
235159 532684 470
321836 360515 441
951587 812269 525
480948 211877 449
681033 201000 509
100751 49287 351
521375 177390 470
556014 786969 509
603779 433236 470
728149 100129 509
710488 409876 509
810462 249939 509
323628 192108 443
274205 54020 443
910940 383444 525
320348 107821 443
590487 318213 470
182911 929447 525
233747 625824 470
271762 133284 443
489302 772929 509
294212 74905 443
550186 944858 525
458119 476936 444
725031 451394 509
211745 206478 373
674434 202844 509
191247 202222 360
344889 532403 470
716007 283411 509
932761 430659 525
511701 520232 470
826164 379661 509
226614 923434 525
459878 225268 449
481816 973643 525
451256 199589 449
670769 159693 509
332821 439023 449
427998 627130 509
793160 219858 509
513083 904249 525
691428 277705 509
138422 738285 509
806966 55282 509
851912 952323 507
5131 907653 525
625612 281983 470
905103 365862 525
202947 47308 383
698760 602291 509
578722 445063 470
354475 261731 441
577272 471829 470
33035 282051 443
580696 62929 470
274528 909282 525
526966 859737 525
893466 361179 525
922848 3374 525
795970 763875 468
29569 744596 509
646974 600850 509
51658 356121 443
442973 463319 444
352212 598803 470
48731 842524 525
372103 484608 449
147223 178589 383
804216 360154 509
24735 293213 443
371992 366081 392
141208 649712 509
47247 529053 470
15932 970696 525
188348 490148 449
364681 17278 443
820575 361259 509
767878 260002 509
743047 679381 504
685312 429991 509
682586 725688 504
960499 794777 525
704203 445219 509
494240 356771 449
913582 287624 525
155955 60886 375
87196 357039 443
910905 61678 525
590472 922860 525
632827 575093 509
379000 42153 443
622804 203349 470
858237 112132 525
262881 512387 470
645316 341614 509
687883 6367 509
814252 739635 468
604549 654865 509
985903 650764 525
707105 600967 509
737347 143811 509
506109 571368 470
250147 855544 525
230944 15403 443
487008 504079 426
642338 353462 509
351965 590773 470
655982 118974 509
735327 221586 509
740482 298613 509
191195 120303 383
33673 484374 449
552881 956636 525
291903 900610 525
47483 992747 525
310623 85118 443
413854 522072 470
639913 509990 509
267142 693834 509
607790 932043 525
820101 500629 509
938858 34758 525
116163 81407 354
501103 50819 449
120705 457530 449
248615 68471 443
118529 952900 525
773129 305459 509
937710 178509 525
788730 27393 509
706985 572029 509
227816 841386 525
125737 784043 509
623818 306597 470
154651 747562 509
895366 988277 507
639865 586633 509
634201 178630 509
787930 134497 509
637316 254788 509
615796 689596 509
307836 712722 509
195913 87232 383
286066 555419 470
79100 321475 443
355745 94819 443
