1 10 20
100 200 125
201 210 89
900 1000 174
1 99999 351
1 1 1
20 10 21
30 10 112
23432 343425 443
999 999999 525
34234 12393 308
111 122 96
939 100 179
3 3 8
200 800 171
5930 93940 351
3940 56493 340
493 94058 351
939 292018 443
3949 29393 308
7075 5055 262
4959 50500 324
2011 8024 262
10 3000 217
404 2020 182
4737 82822 351
2 993884 525
394 9595 262
59959 39492 340
23599 448532 449
3949 694030 509
73747 383848 443
38215 39492 275
12939 493949 449
39593 482830 449
4959 7959 262
50969 59792 340
4930 4949 197
384 38950 324
4968 99706 351
943 45830 324
4858 60643 340
6848 58234 340
135 3949 238
34 5489 238
495 4556 238
103 292 128
343 5950 238
3929 39402 324
58372 39472 340
39210 99847 351
657 789 171
482 18283 279
3848 28471 308
100 3508 217
726 10229 262
5385 39823 324
982 9384 262
38271 56384 340
54 69342 340
299 394 144
150 342 144
18 284 128
348 358 126
345 3802 238
100300 500042 449
7598 58604 340
5683 2714 238
415377 695964 509
134882 384275 443
564581 999999 525
44 30 110
40 63 113
474384 499999 426
1285 1309 177
9393 29293 308
571 3472 217
4585 39020 324
10304 942900 525
9183 28384 308
3929 18455 279
68 320 131
392 392 28
797 2043 182
382 1000 179
102 101 26
36 97 119
20 82 116
100 300 128
9 3 20
888 30209 308
9 17 20
34828 392 311
9944 59992 340
1003 69760 340
589 3844 238
100 109 114
89 200 125
392 19745 279
959 219932 386
5837 28384 308
372 34829 311
4694 59450 340
492 2222 182
101 2929 217
493 70608 340
56 393 144
193 2957 217
4083 4952 215
192754 628658 509
788257 179303 509
472920 96294 449
718375 861360 525
97072 440042 449
8001 142275 354
429167 260908 449
871865 389277 525
176995 152540 383
226911 146898 386
818636 23261 509
622392 872905 525
665785 235770 509
442717 98711 449
513389 808053 509
42169 831575 509
779255 207005 509
840918 586982 525
873948 317411 525
573283 401975 470
149916 333937 443
2847 660107 509
594008 31775 470
66547 300770 443
271528 55574 443
714475 210872 509
116372 684799 509
703709 239905 509
177655 921071 525
134526 485525 449
329190 885255 525
719766 503355 509
270697 619870 470
484344 82409 449
566614 449850 470
561294 910872 525
458558 399426 449
216961 555207 470
182484 221234 386
340970 362979 441
388074 534551 470
337072 691681 509
201992 99547 383
722133 831328 468
166073 442547 449
227342 409444 443
969719 616499 525
435250 518880 470
541017 734113 509
984112 881498 507
149733 22653 375
533007 44789 470
420517 996971 525
500289 10920 449
17507 652523 509
78425 29987 351
883311 822916 525
937026 539590 525
807460 806244 406
963507 149320 525
760938 443889 509
813797 645842 504
216286 454967 449
502479 321988 449
649377 214291 509
879028 327300 525
351442 918109 525
201810 974973 525
262078 452416 449
413729 96717 449
374703 703156 509
632321 249635 509
818506 865352 525
135622 802012 509
351114 657965 509
983969 902256 507
262838 490154 449
522426 461995 470
218330 844710 525
223712 56349 386
349170 544620 470
685254 123427 509
599831 543880 452
396051 667888 509
271907 760657 509
969376 715845 525
687893 425333 509
155637 41284 375
926880 751184 525
149004 309723 443
421730 569362 470
64919 685603 509
541608 605705 452
623292 814718 509
565145 994974 525
240667 714041 509
55004 363658 443
167418 336912 443
614406 566551 434
570707 73580 470