1 10 20
100 200 125
201 210 89
900 1000 174
1 2 2
1 1 1
20 25 24
522672 296957 470
108836 258221 443
791246 870535 525
134345 381901 443
136363 357319 443
690635 226134 509
350877 582192 470
89942 657660 509
67884 710232 509
95677 228987 386
221125 881039 525
621048 765891 509
959435 382675 525
258720 475275 449
493239 905204 525
116257 201362 383
424032 688552 509
258023 457988 449
539286 849246 525
891558 367626 525
753408 993342 525
112041 681940 509
992586 292768 525
199743 814654 509
749924 869847 525
773108 479598 509
160427 412138 449
655727 526390 509
531207 108962 470
581098 756593 509
61458 323300 443
403754 762704 509
434275 567212 470
798948 563985 509
462543 785539 509
17771 527882 470
648758 854938 525
145977 947402 525
204218 809663 509
739910 971664 525
360967 602155 470
431433 302958 449
753639 911859 525
809145 594930 509
477116 338590 449
886897 307461 525
429957 821950 509
869504 771832 525
657354 146639 509
17290 570130 470
866615 320769 525
708763 128960 509
706701 303490 509
744872 551676 509
750897 239451 509
883584 358214 525
471214 366542 449
541425 248379 470
821186 626493 504
227566 56076 386
615412 510786 470
608087 71817 470
846194 978768 507
912280 648006 525
309276 987663 525
376810 90185 443
357463 96235 443
995644 482079 525
258126 713275 509
838936 47339 525
787379 428494 509
219481 237677 443
442106 595366 470
921957 372259 525
376640 262413 441
691106 139994 509
105427 879742 525
624338 183507 470
434523 212915 449
558508 803954 509
101126 185795 383
743904 300308 509
487543 547480 470
921069 884097 476
706111 412496 509
673185 805842 504
338716 668432 509
183165 915900 525
403609 719507 509
375872 218374 443
365124 38849 443
303056 500743 449
181362 163721 365
325675 536725 470
984944 169124 525
23524 574742 470
31936 656990 509
386341 732526 509
110968 31365 354
504704 778085 509
249083 101383 443
328501 66336 443
96282 297188 443
650518 786575 504
440991 639267 509
554043 839355 525
494375 600858 470
762572 53404 509
83981 264035 443
306674 330268 384
701429 792293 504
1616 701437 509
541594 678872 509
669509 236045 509
602196 255596 470
508272 660818 509
966091 888357 507
38577 402011 443
116496 598262 470
646006 469471 509
590103 423228 470
301654 747956 509
219478 871925 525
468552 997272 525
820497 433677 509
679318 528497 509
770734 610201 509
243733 327207 407
388107 546042 470
829309 982319 525
75530 954897 525
597812 710932 509
365878 895087 525
81645 157799 383
665606 948294 525
573938 548845 421
328836 926409 525
915028 846004 476
692864 937734 525
505382 582325 470
814588 663779 504
373128 122627 443
550224 355213 470
704397 483540 509
899208 795899 525
264737 296525 407
485619 289187 449
876491 908853 445
185054 695512 509
788563 891205 525
113007 792234 509
231473 491254 449
717982 479968 509
945464 559101 525
71070 381523 443
816479 973606 525
770794 893118 525
890383 179010 525
736852 689196 504
901600 375210 525
987424 903123 507
317062 185312 443
694094 484551 509
113317 112273 305
108710 197890 383
899257 277230 525
813832 560001 509
710189 880495 525
876002 718550 525
948156 706973 525
657767 394016 509
911030 303475 525
797473 855298 525
393657 161059 443
33861 900991 525
716341 224349 509
335929 803629 509
874185 571672 525
573888 921421 525
522304 708282 509
808370 777214 468
586020 336281 470
871593 302146 525
784133 588960 509
258831 245472 363
29272 335319 443
149437 32038 375
85253 562614 470
734373 310394 509
684597 844628 525
785992 731483 468
808637 167492 509
608896 331519 470
626248 175009 470
147950 277157 443
259711 118316 443
390550 126322 443
826342 543996 509
403792 371250 436
836590 349702 509
755802 913559 525
360894 598002 470
472322 668652 509
76457 810964 509
35174 38041 324
351614 192132 443
51729 293095 443
87109 78760 338
847798 700586 525
704207 68952 509
536314 141472 470
665993 196752 509
936050 269484 525
565258 597063 434
868907 149753 525
923999 415476 525
900933 675998 525
233559 380887 441
998438 157595 525
332693 357355 441
100303 481338 449
844417 873429 432
239380 901908 525
654161 358356 509
145638 737558 509
982313 800019 525
291468 685601 509
690585 38603 509
747190 836657 468
685342 543442 509
568220 966928 525
92541 293434 443
110028 810550 509
487612 7076 449
805011 226807 509
213798 57194 383
242091 91212 443
868037 166513 525
331371 504675 449
338508 768317 509
492501 952485 525
303528 783539 509
581599 206477 470
555362 100382 470
754760 384719 509
889242 354316 525
651411 153211 509
257163 251525 363
412570 401116 449
36126 342724 443