1 10 20
100 200 125
201 210 89
900 1000 174
48 2964 217
6076 79 238
1 999999 525
733017 692741 504
118047 707149 509
684465 652968 442
191130 686379 509
563035 250973 470
445072 712127 509
188925 664288 509
785712 830556 468
832106 514904 509
595500 998072 525
892725 553933 525
51012 99586 351
944818 535226 525
940373 370111 525
129172 839585 525
350057 672059 509
377195 247985 441
577489 315608 470
749219 452903 509
683582 190065 509
882125 465282 525
560705 496943 470
168775 2800 383
626938 770156 504
248851 747025 509
720609 58928 509
140714 859909 525
323845 118190 443
169806 151248 383
809387 749402 468
169042 730348 509
735176 548897 509
252884 123140 443
426474 622613 470
100774 679776 509
47689 435018 449
189917 346054 443
333931 498694 449
182105 788369 509
791391 963363 525
475901 974499 525
342074 495789 449
943948 975205 458
620793 991090 525
691037 542523 509
516139 758675 509
791872 341912 509
76161 335616 443
951353 282634 525
68404 114274 354
629837 898762 525
89853 290314 443
955319 971232 458
132268 9359 354
172111 923392 525
494653 976708 525
446397 171439 449
228012 491266 449
889904 332444 525
226191 353992 443
833579 474813 509
95297 638219 509
977289 952359 458
309178 753240 509
524547 282653 470
757537 722927 424
801470 242826 509
854683 607025 525
465693 214047 449
432954 738490 509
934168 333521 525
473885 880686 525
411552 560078 470
5159 651666 509
805344 818191 406
100113 399590 443
487087 925374 525
478312 295661 449
505057 115983 449
50362 92243 351
148353 94680 375
777321 732549 468
393154 641361 509
142552 751523 509
209430 81571 383
332608 229794 443
108544 769367 509
100158 795705 509
648703 337894 509
456087 100638 449
841135 475792 525
734456 367811 509
160452 794038 509
36940 468402 449
450694 978856 525
663495 834081 504
463519 116214 449
898487 84626 525
10373 916410 525
958246 851078 507
684853 754503 504
630213 678783 442
308112 653318 509
764280 485811 509
549826 594085 434
338585 164646 443
734713 496789 509
760951 337525 509
983237 886932 507
719726 172467 509
321435 548183 470
351028 149409 443
520071 27412 470
376495 988908 525
661606 262010 509
764880 567388 509
319806 874214 525
326130 514256 470
566237 341524 470
44820 856525 525
938985 181369 525
160500 325742 443
958278 988350 458
18174 204985 383
440698 692135 509
626705 406459 509
311624 496126 449
991090 815725 525
563557 3731 470
400939 577901 470
261126 338542 407
561965 691526 509
352282 538700 470
970651 161034 525
308271 489653 449
989130 485742 525
169306 162948 352
269732 773031 509
454152 176456 449
143565 3294 375
246125 871346 525
712539 67619 509
101409 910517 525
697520 463169 509
495292 752415 509
499572 74317 449
335518 262661 407
603357 492381 470
649447 686529 442
107311 90120 354
756190 426833 509
816194 685190 504
447437 297200 449
971485 147087 525
552541 59718 470
844869 989893 507
194082 360576 443
460436 597675 470
194180 558820 470
254159 110573 443
782712 930431 525
386617 376514 423
380503 670410 509
321300 659943 509
190795 273174 443
183287 477912 449
888748 187551 525
849773 38187 525
17330 757923 509
64528 761876 509
550010 766993 509
20889 816614 509
651878 348943 509
282148 155873 443
301294 985897 525
728756 68586 509
313995 256806 407
336600 205007 443
637676 763429 504
788290 764792 468
127847 868779 525
727660 90159 509
99616 429083 449
739078 467161 509
922839 767430 525
158816 745830 509
20278 427834 449
911469 52078 525
281037 269981 407
311700 431234 449
52573 935698 525
299400 621631 470
466678 767766 509
523702 763116 509
490337 390955 449
674490 472278 509
277082 922473 525
582956 403588 470
858608 226420 525
186968 213959 373
868110 736643 525
739722 809471 468
292950 337489 384
73993 83527 351
330157 399879 441
980757 539939 525
62433 710502 509
771880 688112 504
789906 746095 468
728947 371713 509
310346 720974 509
510294 169239 449
278462 813488 509
349707 378520 423
134163 104478 354
829326 239234 509
979412 835087 525
915336 414814 525
900726 639144 525
474012 483889 413
529562 578517 452
282013 685618 509
906942 301763 525
574977 334477 470
513105 615 470
19096 396709 443
434519 654254 509
76282 643722 509
590895 82496 470
866740 645185 525
210369 95836 383
297315 138938 443
505989 126668 449
709483 377159 509
248119 919736 525
678532 304024 509
629068 784423 504
924648 861490 476
250940 49089 443
532480 310513 470
364787 840877 525
490381 22058 449
823579 827012 375
563276 966228 525
193238 709235 509
562941 771468 509
140373 107750 349
834924 687307 504
430956 942567 525
485670 997486 525