1 10 20
100 200 125
201 210 89
900 1000 174
236 1173 182
144 1022 179
232 765 171
125 3783 238
251 798 171
231 587 144
23 417 144
339 1182 182
196 369 144
355 604 142
259 430 144
311 360 144
189 407 144
249 423 144
74 862 171
229 251 128
185 1114 179
340 412 134
177 406 144
264 393 144
107 211 125
123 185 125
76 393 144
113 431 144
405 1173 182
130 1047 179
114 326 131
115 644 144
201 264 128
97 840 171
23 246 128
114 1165 182
196 434 144
379 887 179
233 1131 179
149 957 179
56 771 171
6 417 144
43 911 179
28 472 144
64 283 128
23 345 144
52 759 171
321 1044 179
255 1084 179
99 405 144
257 647 144
6 251 128
1 79 116
7 226 125
233 390 144
88 255 128
197 728 171
130 258 128
261 669 145
25 479 144
97 474 144
195 406 144
186 384 144
60 195 125
57 279 128
75 1019 179
108 124 114
392 821 171
359 1008 179
338 520 142
174 1039 179
193 363 144
104 1172 182
177 633 144
64 914 179
50 1171 182
151 1077 179
207 288 128
310 1014 179
127 1156 179
76 661 145
103 934 179
304 318 131
55 70 113
341 802 171
32 214 125
184 613 144
248 609 144
227 710 171
55 357 144
17 730 171
214 538 144
305 1081 179
140 141 16
147 442 144
274 1148 179
173 981 179
221 1033 179
165 341 144
93 803 171
241 1086 179
414 617 142
353 868 171
61 308 128
336 950 179
265 291 123
99 241 128
306 1009 179
123 275 128
405 1187 182
409 575 142
384 829 171
114 185 125
213 1142 179
355 556 142
154 395 144
244 854 171
241 388 144
230 810 171
10 171 125
313 772 171
419 1005 179
290 792 171
80 959 179
114 504 144
298 929 179
29 460 144
29 765 171
69 319 131
129 330 144
191 206 120
26 157 122
89 1078 179
370 574 142
342 417 134
69 344 144
351 744 171
29 974 179
295 476 144
152 1073 179
358 683 145
378 726 171
13 198 125
252 423 144
177 178 32
247 438 144
201 235 128
344 463 134
322 761 171
342 369 126
110 739 171
157 387 144
155 708 171
358 906 179
43 1050 179
58 268 128
79 493 144
19 635 144
3 843 171
336 938 179
106 236 128
110 737 171
147 837 171
164 569 144
319 1005 179
27 395 144
114 1184 182
231 336 144
309 673 145
83 549 144
273 287 105
30 234 128
251 607 144
223 326 131
245 325 131
170 829 171
137 1182 182
203 507 144
12 1072 179
181 464 144
11 433 144
189 780 171
105 1030 179
171 726 171
241 373 144
261 616 144
407 586 142
78 846 171
208 274 128
14 802 171
121 271 128
274 361 144
152 423 144
156 1055 179
257 885 179
57 523 144
114 930 179
411 788 171
398 811 171
392 763 171
30 524 144
91 181 125
179 335 144
