1184 5979 238
5571 2368 238
4548 9344 262
8958 4071 262
7324 2684 262
8219 4424 262
5151 5651 236
62 1628 182
8736 8972 247
9547 882 262
2135 4167 238
1407 5755 238
1301 1341 177
784 6932 262
3878 7505 262
588 4499 238
7977 5956 262
6927 1093 262
229 7447 262
2568 6797 262
5643 97 238
4247 8453 262
943 1128 169
9223 7556 252
96 8651 262
2992 2845 217
3698 8283 262
9669 6142 262
740 3324 217
26 7095 262
6501 1073 262
6276 2882 262
1474 5287 238
9376 3568 262
7422 1606 262
9306 3992 262
5478 3800 215
3249 3474 181
9473 5277 262
2768 3492 217
3023 6391 262
2095 652 182
5506 4263 215
4396 231 238
6251 3154 262
7803 9602 260
5020 2449 238
1616 9343 262
1326 3094 217
7780 3851 262
3115 5951 238
6522 939 262
2068 5916 238
4116 6182 262
6141 7288 262
5198 2373 238
9817 6712 260
2769 7732 262
4357 372 238
1067 3292 217
4338 6110 236
7863 7847 146
3546 4927 238
929 9403 262
5129 2725 238
425 2350 183
2793 5915 238
7294 849 262
9647 1567 262
4026 3111 238
5934 4379 236
5409 51 238
5447 8052 262
4087 5238 215
6680 4589 262
6848 7682 257
700 1453 182
9365 2411 262
1565 8358 262
758 3123 217
5223 1126 238
8462 3848 262
6627 3434 262
2389 3224 217
7131 4683 262
5073 1362 238
4553 4020 215
127 8037 262
4603 4067 215
9004 3736 262
757 7091 262
1309 9497 262
1780 7749 262
8049 222 262
9171 6253 257
6711 2403 262
4054 372 238
9491 3713 262
9022 183 262
9006 8365 247
5417 4684 210
3054 9501 262
3771 4018 189
8390 4023 262
1527 4224 238
6414 8365 257
436 9197 262
3398 4832 238
7205 8440 252
5696 1673 238
3313 7263 262
6080 4107 236
5768 1689 238
1524 3494 217
2764 2734 173
7791 5552 262
1211 9611 262
8580 2838 262
5291 4193 215
4586 8912 262
2382 6808 262
5638 9202 262
1752 4094 238
2592 8555 262
9977 2079 262
2919 1679 217
3385 7632 262
2823 8656 262
9423 4881 262
2356 2988 217
3022 5050 238
3022 5223 238
75 6879 262
6855 1561 262
801 8105 262
7846 2874 262
5094 4629 210
8303 4073 262
3696 8454 262
819 4412 238
6772 701 262
2821 3817 238
3305 5230 238
1804 7780 262
2871 3756 238
8059 893 262
4762 8797 262
6249 5703 262
7763 9770 260
2475 7714 262
6548 5159 262
1416 7992 262
7217 2112 262
7563 9348 260
9226 1414 262
322 2786 209
725 1179 182
5600 9623 262
8194 1347 262
8312 609 262
5772 9958 262
456 8843 262
904 4494 238
2485 477 209
3825 3320 238
2779 2038 209
8069 9852 260
871 4594 238
882 2834 209
1928 8932 262
4877 6773 262
2958 2161 217
3089 6317 262
7302 5007 262
631 5115 238
8833 7387 252
3262 3825 238
5439 1624 238
9295 748 262
3351 9198 262
7939 9462 260
6211 2912 262
4787 7828 262
5201 292 238
6518 485 262
6954 9640 260
6525 1985 262
155 5871 238
9876 6168 262
5646 2941 238
2654 9297 262
2593 9938 262
9493 1219 262
2696 8913 262
3372 6273 262
5868 6476 262
9445 8903 260
4686 9563 262
1487 8611 262
413 7490 262
3714 6829 262
4126 6929 262
1182 9373 262
9591 9546 198
5910 6634 262
1179 8513 262
9705 3590 262
9759 7548 260
5421 5201 192
5979 1358 238
6270 8056 257
5265 5633 236
455 8584 262
9728 1746 262
158 4441 238
7999 4430 262
8808 9143 247
5254 2238 238
1041 7911 262
9500 3766 262
1845 8667 262
5102 9445 262
3898 2109 238
4843 1590 238
3519 695 217
8897 8167 234
1963 5406 238
9045 9448 260
3176 9944 262
2956 1277 217
3556 3578 194
7849 3551 262
6714 1991 262
9791 1182 262
2190 1085 182
7117 3955 262
4748 3140 238
6546 9095 257
5111 7303 262
6733 8273 257
1357 9963 262
2236 5747 238
5702 3662 238
4754 3618 238
4113 7448 262
1452 3579 217
7686 3635 262
6248 2464 262
9700 4962 262
1916 8975 262
1515 8763 262
1452 5311 238
5508 7685 262
5670 4898 236
4188 432 238
26 2714 209
6551 607 262
5009 9096 262
3564 2894 217
8211 2530 262
7342 7145 195
3948 8244 262
6460 2968 262
72 1606 182
7102 1124 262
5593 7387 262
9856 8510 260